Coding Practice
…
## ── Column specification ─────────────────────────────────────────────────────────────────────────
## Delimiter: ","
## chr (6): species_id, sex, genus, species, taxa, plot_type
## dbl (7): record_id, month, day, year, plot_id, hindfoot_length, weight

## 
## ℹ Use `spec()` to retrieve the full column specification for this data.
## ℹ Specify the column types or set `show_col_types = FALSE` to quiet this message.

#2
surveys %>% 
  filter(weight > 30 & weight < 60)

## # A tibble: 14,730 × 13
##    record_id month   day  year plot_id species_id sex   hindfoot_length weight genus     species 
##        <dbl> <dbl> <dbl> <dbl>   <dbl> <chr>      <chr>           <dbl>  <dbl> <chr>     <chr>   
##  1      5966     5    22  1982       2 NL         F                  32     40 Neotoma   albigula
##  2       226     9    13  1977       2 DM         M                  37     51 Dipodomys merriami
##  3       233     9    13  1977       2 DM         M                  25     44 Dipodomys merriami
##  4       245    10    16  1977       2 DM         M                  37     39 Dipodomys merriami
##  5       251    10    16  1977       2 DM         M                  36     49 Dipodomys merriami
##  6       257    10    16  1977       2 DM         M                  37     47 Dipodomys merriami
##  7       259    10    16  1977       2 DM         M                  36     41 Dipodomys merriami
##  8       268    10    16  1977       2 DM         F                  36     55 Dipodomys merriami
##  9       346    11    12  1977       2 DM         F                  37     36 Dipodomys merriami
## 10       350    11    12  1977       2 DM         M                  37     47 Dipodomys merriami
## # … with 14,720 more rows, and 2 more variables: taxa <chr>, plot_type <chr>

#3
biggest_critters <- surveys %>% 
  filter(!is.na(weight)) %>% 
  group_by(species_id, sex) %>% 
  summarise(max_weight = max(weight))

## `summarise()` has grouped output by 'species_id'. You can override using the `.groups` argument.

biggest_critters %>% arrange(max_weight)

## # A tibble: 64 × 3
## # Groups:   species_id [25]
##    species_id sex   max_weight
##    <chr>      <chr>      <dbl>
##  1 PF         <NA>           8
##  2 BA         M              9
##  3 RO         M             11
##  4 RO         F             13
##  5 RF         M             15
##  6 RM         <NA>          16
##  7 BA         F             18
##  8 PE         <NA>          18
##  9 PI         <NA>          18
## 10 PP         <NA>          18
## # … with 54 more rows

biggest_critters %>% arrange(desc(max_weight))

## # A tibble: 64 × 3
## # Groups:   species_id [25]
##    species_id sex   max_weight
##    <chr>      <chr>      <dbl>
##  1 NL         M            280
##  2 NL         F            274
##  3 NL         <NA>         243
##  4 SF         F            199
##  5 DS         F            190
##  6 DS         M            170
##  7 DS         <NA>         152
##  8 SH         F            140
##  9 SH         <NA>         130
## 10 SS         M            130
## # … with 54 more rows

#4
surveys %>% 
  filter(is.na(weight)) %>% 
  group_by(species) %>% 
  tally() %>% 
  arrange(desc(n))

## # A tibble: 37 × 2
##    species          n
##    <chr>        <int>
##  1 harrisi        437
##  2 merriami       334
##  3 bilineata      303
##  4 spilosoma      246
##  5 spectabilis    160
##  6 ordii          123
##  7 albigula       100
##  8 penicillatus    99
##  9 torridus        89
## 10 baileyi         81
## # … with 27 more rows

surveys %>% 
  filter(is.na(weight)) %>% 
  group_by(plot_id) %>% 
  tally() %>% 
  arrange(desc(n))

## # A tibble: 24 × 2
##    plot_id     n
##      <dbl> <int>
##  1      13   160
##  2      15   155
##  3      14   152
##  4      20   152
##  5      12   144
##  6      17   144
##  7      11   119
##  8       9   118
##  9       2   117
## 10      21   106
## # … with 14 more rows

surveys %>% 
  filter(is.na(weight)) %>% 
  group_by(year) %>% 
  tally() %>% 
  arrange(desc(n))

## # A tibble: 26 × 2
##     year     n
##    <dbl> <int>
##  1  1977   221
##  2  1998   195
##  3  1987   151
##  4  1988   130
##  5  1978   124
##  6  1982   123
##  7  1989   123
##  8  1991   108
##  9  2002   108
## 10  1992   106
## # … with 16 more rows

#5
surveys_avg_weight <- surveys %>% 
  filter(!is.na(weight)) %>% 
  group_by(species_id, sex) %>% 
  mutate(avg_weight = mean(weight)) %>% 
  select(species_id, sex, weight, avg_weight)

surveys_avg_weight

## # A tibble: 32,283 × 4
## # Groups:   species_id, sex [64]
##    species_id sex   weight avg_weight
##    <chr>      <chr>  <dbl>      <dbl>
##  1 NL         M        218       166.
##  2 NL         M        204       166.
##  3 NL         M        200       166.
##  4 NL         M        199       166.
##  5 NL         M        197       166.
##  6 NL         M        218       166.
##  7 NL         M        166       166.
##  8 NL         M        184       166.
##  9 NL         M        206       166.
## 10 NL         F        274       154.
## # … with 32,273 more rows

#6
surveys_avg_weight <- surveys_avg_weight %>% 
  mutate(above_average = weight > avg_weight)

surveys_avg_weight

## # A tibble: 32,283 × 5
## # Groups:   species_id, sex [64]
##    species_id sex   weight avg_weight above_average
##    <chr>      <chr>  <dbl>      <dbl> <lgl>        
##  1 NL         M        218       166. TRUE         
##  2 NL         M        204       166. TRUE         
##  3 NL         M        200       166. TRUE         
##  4 NL         M        199       166. TRUE         
##  5 NL         M        197       166. TRUE         
##  6 NL         M        218       166. TRUE         
##  7 NL         M        166       166. TRUE         
##  8 NL         M        184       166. TRUE         
##  9 NL         M        206       166. TRUE         
## 10 NL         F        274       154. TRUE         
## # … with 32,273 more rows
…
