Multi-table joins
…
##    continent area_km2 population percent_total_pop
## 1     Africa 30370000 1022234000              15.0
## 2   Americas 42330000  934611000              14.0
## 3 Antarctica 13720000       4490               0.0
## 4       Asia 43820000 4164252000              60.0
## 5     Europe 10180000  738199000              11.0
## 6    Oceania  9008500   29127000               0.4

We can join the two data.frames using any of the dplyr functions. We will pass the results to str to avoid printing more than we can read, and to get more high-level information on the resulting data.frames.

left_join(gapminder, continents) 

## Joining, by = "continent"

## # A tibble: 1,704 × 9
##    country      year      pop continent lifeExp gdpPercap area_km2 population percent_total_pop
##    <chr>       <dbl>    <dbl> <chr>       <dbl>     <dbl>    <dbl>      <dbl>             <dbl>
##  1 Afghanistan  1952  8425333 Asia         28.8      779. 43820000 4164252000                60
##  2 Afghanistan  1957  9240934 Asia         30.3      821. 43820000 4164252000                60
##  3 Afghanistan  1962 10267083 Asia         32.0      853. 43820000 4164252000                60
##  4 Afghanistan  1967 11537966 Asia         34.0      836. 43820000 4164252000                60
##  5 Afghanistan  1972 13079460 Asia         36.1      740. 43820000 4164252000                60
##  6 Afghanistan  1977 14880372 Asia         38.4      786. 43820000 4164252000                60
##  7 Afghanistan  1982 12881816 Asia         39.9      978. 43820000 4164252000                60
##  8 Afghanistan  1987 13867957 Asia         40.8      852. 43820000 4164252000                60
##  9 Afghanistan  1992 16317921 Asia         41.7      649. 43820000 4164252000                60
## 10 Afghanistan  1997 22227415 Asia         41.8      635. 43820000 4164252000                60
## # … with 1,694 more rows

right_join(gapminder, continents)

## Joining, by = "continent"

## # A tibble: 1,705 × 9
##    country      year      pop continent lifeExp gdpPercap area_km2 population percent_total_pop
##    <chr>       <dbl>    <dbl> <chr>       <dbl>     <dbl>    <dbl>      <dbl>             <dbl>
##  1 Afghanistan  1952  8425333 Asia         28.8      779. 43820000 4164252000                60
##  2 Afghanistan  1957  9240934 Asia         30.3      821. 43820000 4164252000                60
##  3 Afghanistan  1962 10267083 Asia         32.0      853. 43820000 4164252000                60
##  4 Afghanistan  1967 11537966 Asia         34.0      836. 43820000 4164252000                60
##  5 Afghanistan  1972 13079460 Asia         36.1      740. 43820000 4164252000                60
##  6 Afghanistan  1977 14880372 Asia         38.4      786. 43820000 4164252000                60
##  7 Afghanistan  1982 12881816 Asia         39.9      978. 43820000 4164252000                60
##  8 Afghanistan  1987 13867957 Asia         40.8      852. 43820000 4164252000                60
##  9 Afghanistan  1992 16317921 Asia         41.7      649. 43820000 4164252000                60
## 10 Afghanistan  1997 22227415 Asia         41.8      635. 43820000 4164252000                60
## # … with 1,695 more rows
…
## Joining, by = "continent"

## # A tibble: 1 × 9
##   country  year   pop continent  lifeExp gdpPercap area_km2 population percent_total_pop
##   <chr>   <dbl> <dbl> <chr>        <dbl>     <dbl>    <dbl>      <dbl>             <dbl>
## 1 <NA>       NA    NA Antarctica      NA        NA 13720000       4490                 0

There’s another problem in this data.frame – it has two population measures, one by continent and one by country and it’s not clear which is which! Let’s rename a couple of columns.

right_join(gapminder, continents) %>% 
  rename(country_pop = pop, continent_pop = population)

## Joining, by = "continent"

## # A tibble: 1,705 × 9
##    country      year country_pop continent lifeExp gdpPercap area_km2 continent_pop percent_total_p…
##    <chr>       <dbl>       <dbl> <chr>       <dbl>     <dbl>    <dbl>         <dbl>            <dbl>
##  1 Afghanistan  1952     8425333 Asia         28.8      779. 43820000    4164252000               60
##  2 Afghanistan  1957     9240934 Asia         30.3      821. 43820000    4164252000               60
##  3 Afghanistan  1962    10267083 Asia         32.0      853. 43820000    4164252000               60
##  4 Afghanistan  1967    11537966 Asia         34.0      836. 43820000    4164252000               60
##  5 Afghanistan  1972    13079460 Asia         36.1      740. 43820000    4164252000               60
##  6 Afghanistan  1977    14880372 Asia         38.4      786. 43820000    4164252000               60
##  7 Afghanistan  1982    12881816 Asia         39.9      978. 43820000    4164252000               60
##  8 Afghanistan  1987    13867957 Asia         40.8      852. 43820000    4164252000               60
##  9 Afghanistan  1992    16317921 Asia         41.7      649. 43820000    4164252000               60
## 10 Afghanistan  1997    22227415 Asia         41.8      635. 43820000    4164252000               60
## # … with 1,695 more rows
…
## Rows: 24 Columns: 2

## ── Column specification ─────────────────────────────────────────────────────────────────────────
## Delimiter: ","
## chr (1): plot_type
## dbl (1): plot_id

## 
## ℹ Use `spec()` to retrieve the full column specification for this data.
## ℹ Specify the column types or set `show_col_types = FALSE` to quiet this message.

plots

## # A tibble: 24 × 2
##    plot_id plot_type                
##      <dbl> <chr>                    
##  1       1 Spectab exclosure        
##  2       2 Control                  
##  3       3 Long-term Krat Exclosure 
##  4       4 Control                  
##  5       5 Rodent Exclosure         
##  6       6 Short-term Krat Exclosure
##  7       7 Rodent Exclosure         
##  8       8 Control                  
##  9       9 Spectab exclosure        
## 10      10 Rodent Exclosure         
## # … with 14 more rows
…
## Rows: 35549 Columns: 9

## ── Column specification ─────────────────────────────────────────────────────────────────────────
## Delimiter: ","
## chr (2): species_id, sex
## dbl (7): record_id, month, day, year, plot_id, hindfoot_length, weight

## 
## ℹ Use `spec()` to retrieve the full column specification for this data.
## ℹ Specify the column types or set `show_col_types = FALSE` to quiet this message.

surveys

## # A tibble: 35,549 × 9
##    record_id month   day  year plot_id species_id sex   hindfoot_length weight
##        <dbl> <dbl> <dbl> <dbl>   <dbl> <chr>      <chr>           <dbl>  <dbl>
##  1         1     7    16  1977       2 NL         M                  32     NA
##  2         2     7    16  1977       3 NL         M                  33     NA
##  3         3     7    16  1977       2 DM         F                  37     NA
##  4         4     7    16  1977       7 DM         M                  36     NA
##  5         5     7    16  1977       3 DM         M                  35     NA
##  6         6     7    16  1977       1 PF         M                  14     NA
##  7         7     7    16  1977       2 PE         F                  NA     NA
##  8         8     7    16  1977       1 DM         M                  37     NA
##  9         9     7    16  1977       1 DM         F                  34     NA
## 10        10     7    16  1977       6 PF         F                  20     NA
## # … with 35,539 more rows
…
diagram illustrating inner and left joins

For example, to extract all surveys for the first plot, which has plot_id 1, we can do:

plots %>%
  filter(plot_id == 1) %>%
  inner_join(surveys)

## Joining, by = "plot_id"

## # A tibble: 1,995 × 10
##    plot_id plot_type         record_id month   day  year species_id sex   hindfoot_length weight
##      <dbl> <chr>                 <dbl> <dbl> <dbl> <dbl> <chr>      <chr>           <dbl>  <dbl>
##  1       1 Spectab exclosure         6     7    16  1977 PF         M                  14     NA
##  2       1 Spectab exclosure         8     7    16  1977 DM         M                  37     NA
##  3       1 Spectab exclosure         9     7    16  1977 DM         F                  34     NA
##  4       1 Spectab exclosure        78     8    19  1977 PF         M                  16      9
##  5       1 Spectab exclosure        80     8    19  1977 DS         M                  48     NA
##  6       1 Spectab exclosure       218     9    13  1977 PF         M                  13      4
##  7       1 Spectab exclosure       222     9    13  1977 DS         M                  52     NA
##  8       1 Spectab exclosure       239     9    13  1977 DS         M                  48     NA
##  9       1 Spectab exclosure       263    10    16  1977 DM         M                  37     40
## 10       1 Spectab exclosure       270    10    16  1977 DM         F                  36     38
## # … with 1,985 more rows
…
## with dplyr syntax

surveys %>% 
  left_join(species) %>%
  group_by(plot_id, taxa, year) %>%
  summarize(n = n()) %>% 
  filter(taxa == "Rodent")

## Joining, by = "species_id"

## `summarise()` has grouped output by 'plot_id', 'taxa'. You can override using the `.groups` argument.

## # A tibble: 619 × 4
## # Groups:   plot_id, taxa [24]
##    plot_id taxa    year     n
##      <dbl> <chr>  <dbl> <int>
##  1       1 Rodent  1977    22
##  2       1 Rodent  1978    57
##  3       1 Rodent  1979    26
##  4       1 Rodent  1980    75
##  5       1 Rodent  1981    79
##  6       1 Rodent  1982   109
##  7       1 Rodent  1983   129
##  8       1 Rodent  1984    49
##  9       1 Rodent  1985   102
## 10       1 Rodent  1986    57
## # … with 609 more rows

# Alternatively, filter to rodents *before* summarizing by plot and year
surveys %>% 
  left_join(species) %>%
  filter(taxa == "Rodent") %>% 
  group_by(plot_id, year) %>%
  summarize(n = n())

## Joining, by = "species_id"

## `summarise()` has grouped output by 'plot_id'. You can override using the `.groups` argument.

## # A tibble: 619 × 3
## # Groups:   plot_id [24]
##    plot_id  year     n
##      <dbl> <dbl> <int>
##  1       1  1977    22
##  2       1  1978    57
##  3       1  1979    26
##  4       1  1980    75
##  5       1  1981    79
##  6       1  1982   109
##  7       1  1983   129
##  8       1  1984    49
##  9       1  1985   102
## 10       1  1986    57
## # … with 609 more rows
…
## Joining, by = "plot_id"

## Joining, by = "species_id"

## `summarise()` has grouped output by 'plot_type', 'genus'. You can override using the `.groups` argument.

genus_counts

## # A tibble: 59 × 4
## # Groups:   plot_type, genus [59]
##    plot_type genus            taxa       n
##    <chr>     <chr>            <chr>  <int>
##  1 Control   Ammospermophilus Rodent   125
##  2 Control   Baiomys          Rodent     1
##  3 Control   Chaetodipus      Rodent  1902
##  4 Control   Dipodomys        Rodent  9847
##  5 Control   Neotoma          Rodent   610
##  6 Control   Onychomys        Rodent  1481
##  7 Control   Perognathus      Rodent   435
##  8 Control   Peromyscus       Rodent   464
##  9 Control   Reithrodontomys  Rodent   415
## 10 Control   Rodent           Rodent     5
## # … with 49 more rows
…
