Iteration, Iteration, Iteration, Iter
…
Now that we’ve got a generalized bit of code, we can turn it into a function. All we need is a name, function, and a list of arguments. In this case, we’ve just got one argument: x.

rescale_0_1 <- function(x) {
  (x - min(x, na.rm = T)) /
  diff(range(x, na.rm = T))
}

Iterating!

Now that we’ve got a function that’ll rescale a vector of values, we can use one of the map functions to iterate across all the columns in a dataframe, rescaling each one. We’ll use map_df since it returns a dataframe, and we’re feeding it a dataframe.

map_df(mtcars, rescale_0_1)

## # A tibble: 32 × 12
##      mpg   cyl   disp     hp  drat    wt  qsec    vs    am  gear  carb wt_scaled
##    <dbl> <dbl>  <dbl>  <dbl> <dbl> <dbl> <dbl> <dbl> <dbl> <dbl> <dbl>     <dbl>
##  1 0.451   0.5 0.222  0.205  0.525 0.283 0.233     0     1   0.5 0.429     0.283
##  2 0.451   0.5 0.222  0.205  0.525 0.348 0.3       0     1   0.5 0.429     0.348
##  3 0.528   0   0.0920 0.145  0.502 0.206 0.489     1     1   0.5 0         0.206
##  4 0.468   0.5 0.466  0.205  0.147 0.435 0.588     1     0   0   0         0.435
##  5 0.353   1   0.721  0.435  0.180 0.493 0.3       0     0   0   0.143     0.493
##  6 0.328   0.5 0.384  0.187  0     0.498 0.681     1     0   0   0         0.498
##  7 0.166   1   0.721  0.682  0.207 0.526 0.160     0     0   0   0.429     0.526
##  8 0.596   0   0.189  0.0353 0.429 0.429 0.655     1     0   0.5 0.143     0.429
##  9 0.528   0   0.174  0.152  0.535 0.419 1         1     0   0.5 0.143     0.419
## 10 0.374   0.5 0.241  0.251  0.535 0.493 0.452     1     0   0.5 0.429     0.493
## # … with 22 more rows
…
