Manipulating and analyzing data with dplyr; Exporting data
…
When you print a tibble, R displays the data type of each column under its name; it prints only the first few rows of data and only as many columns as fit on one screen.

Columns of class character are never automatically converted into factors.

Selecting columns and filtering rows

We’re going to learn some of the most common dplyr functions: select(), filter(), mutate(), group_by(), summarize(), and join. To select columns of a data frame, use select(). The first argument to this function is the data frame (surveys), and the subsequent arguments are the columns to keep.

select(surveys, plot_id, species_id, weight)

To choose rows based on a specific criteria, use filter():

filter(surveys, year == 1995)

## # A tibble: 1,180 x 13
##    record_id month   day  year plot_id species_id sex   hindfoot_length weight genus    species  taxa  plot_type
##        <dbl> <dbl> <dbl> <dbl>   <dbl> <chr>      <chr>           <dbl>  <dbl> <chr>    <chr>    <chr> <chr>    
##  1     22314     6     7  1995       2 NL         M                  34     NA Neotoma  albigula Rode… Control  
##  2     22728     9    23  1995       2 NL         F                  32    165 Neotoma  albigula Rode… Control  
##  3     22899    10    28  1995       2 NL         F                  32    171 Neotoma  albigula Rode… Control  
##  4     23032    12     2  1995       2 NL         F                  33     NA Neotoma  albigula Rode… Control  
##  5     22003     1    11  1995       2 DM         M                  37     41 Dipodom… merriami Rode… Control  
##  6     22042     2     4  1995       2 DM         F                  36     45 Dipodom… merriami Rode… Control  
##  7     22044     2     4  1995       2 DM         M                  37     46 Dipodom… merriami Rode… Control  
##  8     22105     3     4  1995       2 DM         F                  37     49 Dipodom… merriami Rode… Control  
##  9     22109     3     4  1995       2 DM         M                  37     46 Dipodom… merriami Rode… Control  
## 10     22168     4     1  1995       2 DM         M                  36     48 Dipodom… merriami Rode… Control  
## # … with 1,170 more rows
…
surveys_challenge <- surveys %>%
    filter(year < 1995) %>%
    select(year, sex, weight)

Mutate

Frequently you’ll want to create new columns based on the values in existing columns, for example to do unit conversions, or to find the ratio of values in two columns. For this we’ll use mutate().

To create a new column of weight in kg:

surveys %>%
  mutate(weight_kg = weight / 1000)

## # A tibble: 34,786 x 14
##    record_id month   day  year plot_id species_id sex   hindfoot_length weight genus species taxa  plot_type
##        <dbl> <dbl> <dbl> <dbl>   <dbl> <chr>      <chr>           <dbl>  <dbl> <chr> <chr>   <chr> <chr>    
##  1         1     7    16  1977       2 NL         M                  32     NA Neot… albigu… Rode… Control  
##  2        72     8    19  1977       2 NL         M                  31     NA Neot… albigu… Rode… Control  
##  3       224     9    13  1977       2 NL         <NA>               NA     NA Neot… albigu… Rode… Control  
##  4       266    10    16  1977       2 NL         <NA>               NA     NA Neot… albigu… Rode… Control  
##  5       349    11    12  1977       2 NL         <NA>               NA     NA Neot… albigu… Rode… Control  
##  6       363    11    12  1977       2 NL         <NA>               NA     NA Neot… albigu… Rode… Control  
##  7       435    12    10  1977       2 NL         <NA>               NA     NA Neot… albigu… Rode… Control  
##  8       506     1     8  1978       2 NL         <NA>               NA     NA Neot… albigu… Rode… Control  
##  9       588     2    18  1978       2 NL         M                  NA    218 Neot… albigu… Rode… Control  
## 10       661     3    11  1978       2 NL         <NA>               NA     NA Neot… albigu… Rode… Control  
## # … with 34,776 more rows, and 1 more variable: weight_kg <dbl>

You can also create a second new column based on the first new column within the same call of mutate():

surveys %>%
  mutate(weight_kg = weight / 1000,
         weight_kg2 = weight_kg * 2)

## # A tibble: 34,786 x 15
##    record_id month   day  year plot_id species_id sex   hindfoot_length weight genus species taxa  plot_type
##        <dbl> <dbl> <dbl> <dbl>   <dbl> <chr>      <chr>           <dbl>  <dbl> <chr> <chr>   <chr> <chr>    
##  1         1     7    16  1977       2 NL         M                  32     NA Neot… albigu… Rode… Control  
##  2        72     8    19  1977       2 NL         M                  31     NA Neot… albigu… Rode… Control  
##  3       224     9    13  1977       2 NL         <NA>               NA     NA Neot… albigu… Rode… Control  
##  4       266    10    16  1977       2 NL         <NA>               NA     NA Neot… albigu… Rode… Control  
##  5       349    11    12  1977       2 NL         <NA>               NA     NA Neot… albigu… Rode… Control  
##  6       363    11    12  1977       2 NL         <NA>               NA     NA Neot… albigu… Rode… Control  
##  7       435    12    10  1977       2 NL         <NA>               NA     NA Neot… albigu… Rode… Control  
##  8       506     1     8  1978       2 NL         <NA>               NA     NA Neot… albigu… Rode… Control  
##  9       588     2    18  1978       2 NL         M                  NA    218 Neot… albigu… Rode… Control  
## 10       661     3    11  1978       2 NL         <NA>               NA     NA Neot… albigu… Rode… Control  
## # … with 34,776 more rows, and 2 more variables: weight_kg <dbl>, weight_kg2 <dbl>
…
You may also have noticed that the output from these calls doesn’t run off the screen anymore. It’s one of the advantages of tbl_df over data frame.

You can also group by multiple columns:

surveys %>%
  group_by(sex, species_id) %>%
  summarize(mean_weight = mean(weight, na.rm = TRUE))

## `summarise()` regrouping output by 'sex' (override with `.groups` argument)

## # A tibble: 92 x 3
## # Groups:   sex [3]
##    sex   species_id mean_weight
##    <chr> <chr>            <dbl>
##  1 F     BA                9.16
##  2 F     DM               41.6 
##  3 F     DO               48.5 
##  4 F     DS              118.  
##  5 F     NL              154.  
##  6 F     OL               31.1 
##  7 F     OT               24.8 
##  8 F     OX               21   
##  9 F     PB               30.2 
## 10 F     PE               22.8 
## # … with 82 more rows

When grouping both by sex and species_id, the first rows are for individuals that escaped before their sex could be determined and weighted. You may notice that the last column does not contain NA but NaN (which refers to “Not a Number”). To avoid this, we can remove the missing values for weight before we attempt to calculate the summary statistics on weight. Because the missing values are removed first, we can omit na.rm = TRUE when computing the mean:

surveys %>%
  filter(!is.na(weight)) %>%
  group_by(sex, species_id) %>%
  summarize(mean_weight = mean(weight))

## `summarise()` regrouping output by 'sex' (override with `.groups` argument)

## # A tibble: 64 x 3
## # Groups:   sex [3]
##    sex   species_id mean_weight
##    <chr> <chr>            <dbl>
##  1 F     BA                9.16
##  2 F     DM               41.6 
##  3 F     DO               48.5 
##  4 F     DS              118.  
##  5 F     NL              154.  
##  6 F     OL               31.1 
##  7 F     OT               24.8 
##  8 F     OX               21   
##  9 F     PB               30.2 
## 10 F     PE               22.8 
## # … with 54 more rows

Here, again, the output from these calls doesn’t run off the screen anymore. If you want to display more data, you can use the print() function at the end of your chain with the argument n specifying the number of rows to display:

surveys %>%
  filter(!is.na(weight)) %>%
  group_by(sex, species_id) %>%
  summarize(mean_weight = mean(weight)) %>%
  print(n = 15)

## `summarise()` regrouping output by 'sex' (override with `.groups` argument)

## # A tibble: 64 x 3
## # Groups:   sex [3]
##    sex   species_id mean_weight
##    <chr> <chr>            <dbl>
##  1 F     BA                9.16
##  2 F     DM               41.6 
##  3 F     DO               48.5 
##  4 F     DS              118.  
##  5 F     NL              154.  
##  6 F     OL               31.1 
##  7 F     OT               24.8 
##  8 F     OX               21   
##  9 F     PB               30.2 
## 10 F     PE               22.8 
## 11 F     PF                7.97
## 12 F     PH               30.8 
## 13 F     PL               19.3 
## 14 F     PM               22.1 
## 15 F     PP               17.2 
## # … with 49 more rows

Once the data are grouped, you can also summarize multiple variables at the same time (and not necessarily on the same variable). For instance, we could add a column indicating the minimum weight for each species for each sex:

surveys %>%
  filter(!is.na(weight)) %>%
  group_by(sex, species_id) %>%
  summarize(mean_weight = mean(weight),
            min_weight = min(weight))

## `summarise()` regrouping output by 'sex' (override with `.groups` argument)

## # A tibble: 64 x 4
## # Groups:   sex [3]
##    sex   species_id mean_weight min_weight
##    <chr> <chr>            <dbl>      <dbl>
##  1 F     BA                9.16          6
##  2 F     DM               41.6          10
##  3 F     DO               48.5          12
##  4 F     DS              118.           45
##  5 F     NL              154.           32
##  6 F     OL               31.1          10
##  7 F     OT               24.8           5
##  8 F     OX               21            20
##  9 F     PB               30.2          12
## 10 F     PE               22.8          11
## # … with 54 more rows
…
ANSWER

## Answer 1
surveys %>%
    filter(!is.na(hindfoot_length)) %>%
    group_by(species_id) %>%
    summarize(
        mean_hindfoot_length = mean(hindfoot_length),
        min_hindfoot_length = min(hindfoot_length),
        max_hindfoot_length = max(hindfoot_length)
    )

## `summarise()` ungrouping output (override with `.groups` argument)

## # A tibble: 25 x 4
##    species_id mean_hindfoot_length min_hindfoot_length max_hindfoot_length
##    <chr>                     <dbl>               <dbl>               <dbl>
##  1 AH                         33                    31                  35
##  2 BA                         13                     6                  16
##  3 DM                         36.0                  16                  50
##  4 DO                         35.6                  26                  64
##  5 DS                         49.9                  39                  58
##  6 NL                         32.3                  21                  70
##  7 OL                         20.5                  12                  39
##  8 OT                         20.3                  13                  50
##  9 OX                         19.1                  13                  21
## 10 PB                         26.1                   2                  47
## # … with 15 more rows

## Answer 2
surveys %>%
    filter(!is.na(weight)) %>%
    group_by(year) %>%
    filter(weight == max(weight)) %>%
    select(year, genus, species, weight) %>%
    arrange(year)

## # A tibble: 27 x 4
## # Groups:   year [26]
##     year genus     species     weight
##    <dbl> <chr>     <chr>        <dbl>
##  1  1977 Dipodomys spectabilis    149
##  2  1978 Neotoma   albigula       232
##  3  1978 Neotoma   albigula       232
##  4  1979 Neotoma   albigula       274
##  5  1980 Neotoma   albigula       243
##  6  1981 Neotoma   albigula       264
##  7  1982 Neotoma   albigula       252
##  8  1983 Neotoma   albigula       256
##  9  1984 Neotoma   albigula       259
## 10  1985 Neotoma   albigula       225
## # … with 17 more rows
…
