Multi-table joins
…
##    continent area_km2 population percent_total_pop
## 1     Africa 30370000 1022234000              15.0
## 2   Americas 42330000  934611000              14.0
## 3 Antarctica 13720000       4490               0.0
## 4       Asia 43820000 4164252000              60.0
## 5     Europe 10180000  738199000              11.0
## 6    Oceania  9008500   29127000               0.4

We can join the two data.frames using any of the dplyr functions. We will pass the results to str to avoid printing more than we can read, and to get more high-level information on the resulting data.frames.

left_join(gapminder, continents) 

## Joining, by = "continent"

## # A tibble: 1,704 x 11
##    country  year    pop continent lifeExp gdpPercap total_gdp log_gdp
##    <chr>   <dbl>  <dbl> <chr>       <dbl>     <dbl>     <dbl>   <dbl>
##  1 Afghan…  1952 8.43e6 Asia         28.8      779.   6.57e 9    9.82
##  2 Afghan…  1957 9.24e6 Asia         30.3      821.   7.59e 9    9.88
##  3 Afghan…  1962 1.03e7 Asia         32.0      853.   8.76e 9    9.94
##  4 Afghan…  1967 1.15e7 Asia         34.0      836.   9.65e 9    9.98
##  5 Afghan…  1972 1.31e7 Asia         36.1      740.   9.68e 9    9.99
##  6 Afghan…  1977 1.49e7 Asia         38.4      786.   1.17e10   10.1 
##  7 Afghan…  1982 1.29e7 Asia         39.9      978.   1.26e10   10.1 
##  8 Afghan…  1987 1.39e7 Asia         40.8      852.   1.18e10   10.1 
##  9 Afghan…  1992 1.63e7 Asia         41.7      649.   1.06e10   10.0 
## 10 Afghan…  1997 2.22e7 Asia         41.8      635.   1.41e10   10.1 
## # … with 1,694 more rows, and 3 more variables: area_km2 <dbl>,
## #   population <dbl>, percent_total_pop <dbl>

right_join(gapminder, continents)

## Joining, by = "continent"

## # A tibble: 1,705 x 11
##    country  year    pop continent lifeExp gdpPercap total_gdp log_gdp
##    <chr>   <dbl>  <dbl> <chr>       <dbl>     <dbl>     <dbl>   <dbl>
##  1 Algeria  1952 9.28e6 Africa       43.1     2449.   2.27e10    10.4
##  2 Algeria  1957 1.03e7 Africa       45.7     3014.   3.10e10    10.5
##  3 Algeria  1962 1.10e7 Africa       48.3     2551.   2.81e10    10.4
##  4 Algeria  1967 1.28e7 Africa       51.4     3247.   4.14e10    10.6
##  5 Algeria  1972 1.48e7 Africa       54.5     4183.   6.17e10    10.8
##  6 Algeria  1977 1.72e7 Africa       58.0     4910.   8.42e10    10.9
##  7 Algeria  1982 2.00e7 Africa       61.4     5745.   1.15e11    11.1
##  8 Algeria  1987 2.33e7 Africa       65.8     5681.   1.32e11    11.1
##  9 Algeria  1992 2.63e7 Africa       67.7     5023.   1.32e11    11.1
## 10 Algeria  1997 2.91e7 Africa       69.2     4797.   1.39e11    11.1
## # … with 1,695 more rows, and 3 more variables: area_km2 <dbl>,
## #   population <dbl>, percent_total_pop <dbl>
…
## # A tibble: 1 x 11
##   country  year   pop continent lifeExp gdpPercap total_gdp log_gdp
##   <chr>   <dbl> <dbl> <chr>       <dbl>     <dbl>     <dbl>   <dbl>
## 1 <NA>       NA    NA Antarcti…      NA        NA        NA      NA
## # … with 3 more variables: area_km2 <dbl>, population <dbl>,
## #   percent_total_pop <dbl>

There’s another problem in this data.frame – it has two population measures, one by continent and one by country and it’s not clear which is which! Let’s rename a couple of columns.

right_join(gapminder, continents) %>% 
  rename(country_pop = pop, continent_pop = population)

## Joining, by = "continent"

## # A tibble: 1,705 x 11
##    country  year country_pop continent lifeExp gdpPercap total_gdp log_gdp
##    <chr>   <dbl>       <dbl> <chr>       <dbl>     <dbl>     <dbl>   <dbl>
##  1 Algeria  1952     9279525 Africa       43.1     2449.   2.27e10    10.4
##  2 Algeria  1957    10270856 Africa       45.7     3014.   3.10e10    10.5
##  3 Algeria  1962    11000948 Africa       48.3     2551.   2.81e10    10.4
##  4 Algeria  1967    12760499 Africa       51.4     3247.   4.14e10    10.6
##  5 Algeria  1972    14760787 Africa       54.5     4183.   6.17e10    10.8
##  6 Algeria  1977    17152804 Africa       58.0     4910.   8.42e10    10.9
##  7 Algeria  1982    20033753 Africa       61.4     5745.   1.15e11    11.1
##  8 Algeria  1987    23254956 Africa       65.8     5681.   1.32e11    11.1
##  9 Algeria  1992    26298373 Africa       67.7     5023.   1.32e11    11.1
## 10 Algeria  1997    29072015 Africa       69.2     4797.   1.39e11    11.1
## # … with 1,695 more rows, and 3 more variables: area_km2 <dbl>,
## #   continent_pop <dbl>, percent_total_pop <dbl>
…
The datasets can be found here: plots.csv, surveys.csv, and species.csv.

Download them and save them to your downloads folder. Alternatively, copy the link and use the read_csv() function directly on that.

plots <- read_csv("data/plots.csv")

## Parsed with column specification:
## cols(
##   plot_id = col_double(),
##   plot_type = col_character()
## )

plots

## # A tibble: 24 x 2
##    plot_id plot_type                
##      <dbl> <chr>                    
##  1       1 Spectab exclosure        
##  2       2 Control                  
##  3       3 Long-term Krat Exclosure 
##  4       4 Control                  
##  5       5 Rodent Exclosure         
##  6       6 Short-term Krat Exclosure
##  7       7 Rodent Exclosure         
##  8       8 Control                  
##  9       9 Spectab exclosure        
## 10      10 Rodent Exclosure         
## # … with 14 more rows
…
surveys

## # A tibble: 35,549 x 9
##    record_id month   day  year plot_id species_id sex   hindfoot_length
##        <dbl> <dbl> <dbl> <dbl>   <dbl> <chr>      <chr>           <dbl>
##  1         1     7    16  1977       2 NL         M                  32
##  2         2     7    16  1977       3 NL         M                  33
##  3         3     7    16  1977       2 DM         F                  37
##  4         4     7    16  1977       7 DM         M                  36
##  5         5     7    16  1977       3 DM         M                  35
##  6         6     7    16  1977       1 PF         M                  14
##  7         7     7    16  1977       2 PE         F                  NA
##  8         8     7    16  1977       1 DM         M                  37
##  9         9     7    16  1977       1 DM         F                  34
## 10        10     7    16  1977       6 PF         F                  20
## # … with 35,539 more rows, and 1 more variable: weight <dbl>
…
diagram illustrating inner and left joins

For example, to extract all surveys for the first plot, which has plot_id 1, we can do:

plots %>%
  filter(plot_id == 1) %>%
  inner_join(surveys)

## Joining, by = "plot_id"

## # A tibble: 1,995 x 10
##    plot_id plot_type record_id month   day  year species_id sex  
##      <dbl> <chr>         <dbl> <dbl> <dbl> <dbl> <chr>      <chr>
##  1       1 Spectab …         6     7    16  1977 PF         M    
##  2       1 Spectab …         8     7    16  1977 DM         M    
##  3       1 Spectab …         9     7    16  1977 DM         F    
##  4       1 Spectab …        78     8    19  1977 PF         M    
##  5       1 Spectab …        80     8    19  1977 DS         M    
##  6       1 Spectab …       218     9    13  1977 PF         M    
##  7       1 Spectab …       222     9    13  1977 DS         M    
##  8       1 Spectab …       239     9    13  1977 DS         M    
##  9       1 Spectab …       263    10    16  1977 DM         M    
## 10       1 Spectab …       270    10    16  1977 DM         F    
## # … with 1,985 more rows, and 2 more variables: hindfoot_length <dbl>,
## #   weight <dbl>
…
## with dplyr syntax

surveys %>% 
  left_join(species) %>%
  group_by(plot_id, taxa, year) %>%
  summarize(n = n()) %>% 
  filter(taxa == "Rodent")

## Joining, by = "species_id"

## # A tibble: 619 x 4
## # Groups:   plot_id, taxa [24]
##    plot_id taxa    year     n
##      <dbl> <chr>  <dbl> <int>
##  1       1 Rodent  1977    22
##  2       1 Rodent  1978    57
##  3       1 Rodent  1979    26
##  4       1 Rodent  1980    75
##  5       1 Rodent  1981    79
##  6       1 Rodent  1982   109
##  7       1 Rodent  1983   129
##  8       1 Rodent  1984    49
##  9       1 Rodent  1985   102
## 10       1 Rodent  1986    57
## # … with 609 more rows

# Alternatively, filter to rodents *before* summarizing by plot and year
surveys %>% 
  left_join(species) %>%
  filter(taxa == "Rodent") %>% 
  group_by(plot_id, year) %>%
  summarize(n = n())

## Joining, by = "species_id"

## # A tibble: 619 x 3
## # Groups:   plot_id [24]
##    plot_id  year     n
##      <dbl> <dbl> <int>
##  1       1  1977    22
##  2       1  1978    57
##  3       1  1979    26
##  4       1  1980    75
##  5       1  1981    79
##  6       1  1982   109
##  7       1  1983   129
##  8       1  1984    49
##  9       1  1985   102
## 10       1  1986    57
## # … with 609 more rows
…
genus_counts <- 
  surveys %>% 
  left_join(plots) %>%
  left_join(species) %>% 
  filter(taxa == "Rodent") %>% 
  group_by(plot_type, genus, taxa) %>%
  summarize(n = n())

## Joining, by = "plot_id"

## Joining, by = "species_id"

genus_counts

## # A tibble: 59 x 4
## # Groups:   plot_type, genus [59]
##    plot_type genus            taxa       n
##    <chr>     <chr>            <chr>  <int>
##  1 Control   Ammospermophilus Rodent   125
##  2 Control   Baiomys          Rodent     1
##  3 Control   Chaetodipus      Rodent  1902
##  4 Control   Dipodomys        Rodent  9847
##  5 Control   Neotoma          Rodent   610
##  6 Control   Onychomys        Rodent  1481
##  7 Control   Perognathus      Rodent   435
##  8 Control   Peromyscus       Rodent   464
##  9 Control   Reithrodontomys  Rodent   415
## 10 Control   Rodent           Rodent     5
## # … with 49 more rows
…
