Iteration, Iteration, Iteration, Iter
…
rescale_0_1(mtcars$mpg) # it works on one of our columns

##  [1] 0.4510638 0.4510638 0.5276596 0.4680851 0.3531915 0.3276596 0.1659574 0.5957447 0.5276596 0.3744681
## [11] 0.3148936 0.2553191 0.2936170 0.2042553 0.0000000 0.0000000 0.1829787 0.9361702 0.8510638 1.0000000
## [21] 0.4723404 0.2170213 0.2042553 0.1234043 0.3744681 0.7191489 0.6638298 0.8510638 0.2297872 0.3957447
## [31] 0.1957447 0.4680851

Iterating!

Now that we’ve got a function that’ll rescale a vector of values, we can use one of the map functions to iterate across all the columns in a dataframe, rescaling each one. We’ll use map_df since it returns a dataframe, and we’re feeding it a dataframe.

map_df(mtcars, rescale_0_1)

## # A tibble: 32 × 12
##      mpg   cyl   disp     hp  drat    wt  qsec    vs    am  gear  carb wt_scaled
##    <dbl> <dbl>  <dbl>  <dbl> <dbl> <dbl> <dbl> <dbl> <dbl> <dbl> <dbl>     <dbl>
##  1 0.451   0.5 0.222  0.205  0.525 0.283 0.233     0     1   0.5 0.429     0.283
##  2 0.451   0.5 0.222  0.205  0.525 0.348 0.3       0     1   0.5 0.429     0.348
##  3 0.528   0   0.0920 0.145  0.502 0.206 0.489     1     1   0.5 0         0.206
##  4 0.468   0.5 0.466  0.205  0.147 0.435 0.588     1     0   0   0         0.435
##  5 0.353   1   0.721  0.435  0.180 0.493 0.3       0     0   0   0.143     0.493
##  6 0.328   0.5 0.384  0.187  0     0.498 0.681     1     0   0   0         0.498
##  7 0.166   1   0.721  0.682  0.207 0.526 0.160     0     0   0   0.429     0.526
##  8 0.596   0   0.189  0.0353 0.429 0.429 0.655     1     0   0.5 0.143     0.429
##  9 0.528   0   0.174  0.152  0.535 0.419 1         1     0   0.5 0.143     0.419
## 10 0.374   0.5 0.241  0.251  0.535 0.493 0.452     1     0   0.5 0.429     0.493
## # … with 22 more rows
…
