R for reproducible scientific analysis
…
We can also apply multiple conditions, e.g. the US after 2000:

filter(gapminder, country == "United States" & year > 2000)

## # A tibble: 2 x 6
##   country        year       pop continent lifeExp gdpPercap
##   <chr>         <dbl>     <dbl> <chr>       <dbl>     <dbl>
## 1 United States  2002 287675526 Americas     77.3    39097.
## 2 United States  2007 301139947 Americas     78.2    42952.

We can also use “or” conditions with the vertical pipe: |. Notice that the variable (column) names don’t go in quotes, but values of character variables do.

filter(gapminder, country == "United States" | country == "Mexico")

## # A tibble: 24 x 6
##    country  year      pop continent lifeExp gdpPercap
##    <chr>   <dbl>    <dbl> <chr>       <dbl>     <dbl>
##  1 Mexico   1952 30144317 Americas     50.8     3478.
##  2 Mexico   1957 35015548 Americas     55.2     4132.
##  3 Mexico   1962 41121485 Americas     58.3     4582.
##  4 Mexico   1967 47995559 Americas     60.1     5755.
##  5 Mexico   1972 55984294 Americas     62.4     6809.
##  6 Mexico   1977 63759976 Americas     65.0     7675.
##  7 Mexico   1982 71640904 Americas     67.4     9611.
##  8 Mexico   1987 80122492 Americas     69.5     8688.
##  9 Mexico   1992 88111030 Americas     71.5     9472.
## 10 Mexico   1997 95895146 Americas     73.7     9767.
## # … with 14 more rows
A good, handy reference list for the operators (and, or, etc) can be found here.

select()

filter returned a subset of the data.frame’s rows. select returns a subset of the data.frame’s columns.

Suppose we only want to see country and life expectancy.

select(gapminder, country, lifeExp)

We can choose which columns we don’t want

select(gapminder, -continent, income = gdpPercap)

## # A tibble: 1,704 x 5
##    country      year      pop lifeExp income
##    <chr>       <dbl>    <dbl>   <dbl>  <dbl>
##  1 Afghanistan  1952  8425333    28.8   779.
##  2 Afghanistan  1957  9240934    30.3   821.
##  3 Afghanistan  1962 10267083    32.0   853.
##  4 Afghanistan  1967 11537966    34.0   836.
##  5 Afghanistan  1972 13079460    36.1   740.
##  6 Afghanistan  1977 14880372    38.4   786.
##  7 Afghanistan  1982 12881816    39.9   978.
##  8 Afghanistan  1987 13867957    40.8   852.
##  9 Afghanistan  1992 16317921    41.7   649.
## 10 Afghanistan  1997 22227415    41.8   635.
## # … with 1,694 more rows

And we can rename columns

select(gapminder, ThePlace = country, HowLongTheyLive = lifeExp)

## # A tibble: 1,704 x 2
##    ThePlace    HowLongTheyLive
##    <chr>                 <dbl>
##  1 Afghanistan            28.8
##  2 Afghanistan            30.3
##  3 Afghanistan            32.0
##  4 Afghanistan            34.0
##  5 Afghanistan            36.1
##  6 Afghanistan            38.4
##  7 Afghanistan            39.9
##  8 Afghanistan            40.8
##  9 Afghanistan            41.7
## 10 Afghanistan            41.8
## # … with 1,694 more rows
…
Remove the continent column

Make a scatter plot of gdpPercap vs. population colored by country

Advanced How would you determine the median population for the North American countries between 1970 and 1980?

Bonus This can be done using base R’s subsetting, but this class doesn’t teach how. Do the original challenge without the filter and select functions. Feel free to consult Google, helpfiles, etc. to figure out how.

arrange()

You can order the rows of a data.frame by a variable using arrange. Suppose we want to see the most populous countries:

arrange(gapminder, pop)

## # A tibble: 1,704 x 6
##    country                year   pop continent lifeExp gdpPercap
##    <chr>                 <dbl> <dbl> <chr>       <dbl>     <dbl>
##  1 Sao Tome and Principe  1952 60011 Africa       46.5      880.
##  2 Sao Tome and Principe  1957 61325 Africa       48.9      861.
##  3 Djibouti               1952 63149 Africa       34.8     2670.
##  4 Sao Tome and Principe  1962 65345 Africa       51.9     1072.
##  5 Sao Tome and Principe  1967 70787 Africa       54.4     1385.
##  6 Djibouti               1957 71851 Africa       37.3     2865.
##  7 Sao Tome and Principe  1972 76595 Africa       56.5     1533.
##  8 Sao Tome and Principe  1977 86796 Africa       58.6     1738.
##  9 Djibouti               1962 89898 Africa       39.7     3021.
## 10 Sao Tome and Principe  1982 98593 Africa       60.4     1890.
## # … with 1,694 more rows

Hmm, we didn’t get the most populous countries. By default, arrange sorts the variable in increasing order. We could see the most populous countries by examining the tail of the last command, or we can sort the data.frame by descending population by wrapping the variable in desc():

arrange(gapminder, desc(pop))

## # A tibble: 1,704 x 6
##    country  year        pop continent lifeExp gdpPercap
##    <chr>   <dbl>      <dbl> <chr>       <dbl>     <dbl>
##  1 China    2007 1318683096 Asia         73.0     4959.
##  2 China    2002 1280400000 Asia         72.0     3119.
##  3 China    1997 1230075000 Asia         70.4     2289.
##  4 China    1992 1164970000 Asia         68.7     1656.
##  5 India    2007 1110396331 Asia         64.7     2452.
##  6 China    1987 1084035000 Asia         67.3     1379.
##  7 India    2002 1034172547 Asia         62.9     1747.
##  8 China    1982 1000281000 Asia         65.5      962.
##  9 India    1997  959000000 Asia         61.8     1459.
## 10 China    1977  943455000 Asia         64.0      741.
## # … with 1,694 more rows

arrange can also sort by multiple variables. It will sort the data.frame by the first variable, and if there are any ties in that variable, they will be sorted by the next variable, and so on. Here we sort from newest to oldest, and within year from richest to poorest:

arrange(gapminder, desc(year), desc(gdpPercap))

## # A tibble: 1,704 x 6
##    country          year       pop continent lifeExp gdpPercap
##    <chr>           <dbl>     <dbl> <chr>       <dbl>     <dbl>
##  1 Norway           2007   4627926 Europe       80.2    49357.
##  2 Kuwait           2007   2505559 Asia         77.6    47307.
##  3 Singapore        2007   4553009 Asia         80.0    47143.
##  4 United States    2007 301139947 Americas     78.2    42952.
##  5 Ireland          2007   4109086 Europe       78.9    40676.
##  6 Hong Kong China  2007   6980412 Asia         82.2    39725.
##  7 Switzerland      2007   7554661 Europe       81.7    37506.
##  8 Netherlands      2007  16570613 Europe       79.8    36798.
##  9 Canada           2007  33390141 Americas     80.7    36319.
## 10 Iceland          2007    301931 Europe       81.8    36181.
## # … with 1,694 more rows

Shoutout Q: Would we get the same output if we switched the order of desc(year) and desc(gdpPercap) in the last line?

mutate()

We have learned how to drop rows, drop columns, and rearrange rows. To make a new column we use the mutate function. As usual, the first argument is a data.frame. The second argument is the name of the new column you want to create, followed by an equal sign, followed by what to put in that column. You can reference other variables in the data.frame, and mutate will treat each row independently. E.g. we can calculate the total GDP of each country in each year by multiplying the per-capita GDP by the population.

mutate(gapminder, total_gdp = gdpPercap * pop)

## # A tibble: 1,704 x 7
##    country      year      pop continent lifeExp gdpPercap    total_gdp
##    <chr>       <dbl>    <dbl> <chr>       <dbl>     <dbl>        <dbl>
##  1 Afghanistan  1952  8425333 Asia         28.8      779.  6567086330.
##  2 Afghanistan  1957  9240934 Asia         30.3      821.  7585448670.
##  3 Afghanistan  1962 10267083 Asia         32.0      853.  8758855797.
##  4 Afghanistan  1967 11537966 Asia         34.0      836.  9648014150.
##  5 Afghanistan  1972 13079460 Asia         36.1      740.  9678553274.
##  6 Afghanistan  1977 14880372 Asia         38.4      786. 11697659231.
##  7 Afghanistan  1982 12881816 Asia         39.9      978. 12598563401.
##  8 Afghanistan  1987 13867957 Asia         40.8      852. 11820990309.
##  9 Afghanistan  1992 16317921 Asia         41.7      649. 10595901589.
## 10 Afghanistan  1997 22227415 Asia         41.8      635. 14121995875.
## # … with 1,694 more rows
…
$331

$339

Advanced: Use dplyr functions and ggplot to plot per-capita GDP versus population for North American countries after 1970. - Once you’ve made the graph, transform both axes to a log10 scale. There are two ways to do this, one by creating new columns in the data frame, and another using functions provided by ggplot to transform the axes. Implement both, in that order. Which do you prefer and why?

C’est ne pas une pipe

Suppose we want to look at all the countries where life expectancy is greater than 80 years, sorted from poorest to richest. First, we filter, then we arrange. We could assign the intermediate data.frame to a variable:

lifeExpGreater80 = filter(gapminder, lifeExp > 80)
(lifeExpGreater80sorted = arrange(lifeExpGreater80, gdpPercap))

## # A tibble: 21 x 8
##    country       year     pop continent lifeExp gdpPercap total_gdp log_gdp
##    <chr>        <dbl>   <dbl> <chr>       <dbl>     <dbl>     <dbl>   <dbl>
##  1 New Zealand   2007  4.12e6 Oceania      80.2    25185.   1.04e11    11.0
##  2 Israel        2007  6.43e6 Asia         80.7    25523.   1.64e11    11.2
##  3 Italy         2002  5.79e7 Europe       80.2    27968.   1.62e12    12.2
##  4 Italy         2007  5.81e7 Europe       80.5    28570.   1.66e12    12.2
##  5 Japan         2002  1.27e8 Asia         82      28605.   3.63e12    12.6
##  6 Japan         1997  1.26e8 Asia         80.7    28817.   3.63e12    12.6
##  7 Spain         2007  4.04e7 Europe       80.9    28821.   1.17e12    12.1
##  8 Sweden        2002  8.95e6 Europe       80.0    29342.   2.63e11    11.4
##  9 Hong Kong C…  2002  6.76e6 Asia         81.5    30209.   2.04e11    11.3
## 10 France        2007  6.11e7 Europe       80.7    30470.   1.86e12    12.3
## # … with 11 more rows

In this case it doesn’t much matter, but we make a whole new data.frame (lifeExpGreater80) and only use it once; that’s a little wasteful of system resources, and it clutters our environment. If the data are large, that can be a big problem.

Or, we could nest each function so that it appears on one line:

arrange(filter(gapminder, lifeExp > 80), gdpPercap)

## # A tibble: 21 x 8
##    country       year     pop continent lifeExp gdpPercap total_gdp log_gdp
##    <chr>        <dbl>   <dbl> <chr>       <dbl>     <dbl>     <dbl>   <dbl>
##  1 New Zealand   2007  4.12e6 Oceania      80.2    25185.   1.04e11    11.0
##  2 Israel        2007  6.43e6 Asia         80.7    25523.   1.64e11    11.2
##  3 Italy         2002  5.79e7 Europe       80.2    27968.   1.62e12    12.2
##  4 Italy         2007  5.81e7 Europe       80.5    28570.   1.66e12    12.2
##  5 Japan         2002  1.27e8 Asia         82      28605.   3.63e12    12.6
##  6 Japan         1997  1.26e8 Asia         80.7    28817.   3.63e12    12.6
##  7 Spain         2007  4.04e7 Europe       80.9    28821.   1.17e12    12.1
##  8 Sweden        2002  8.95e6 Europe       80.0    29342.   2.63e11    11.4
##  9 Hong Kong C…  2002  6.76e6 Asia         81.5    30209.   2.04e11    11.3
## 10 France        2007  6.11e7 Europe       80.7    30470.   1.86e12    12.3
## # … with 11 more rows

This would become difficult to read if we are performing a number of operations that would require a repeated nesting. But…

There is a better way, and it makes both writing and reading the code easier. The pipe from the magrittr package (which is automatically installed and loaded with dplyr and tidyverse) takes the output of first line, and plugs it in as the first argument of the next line. Since many tidyverse functions expect a data.frame as the first argument and output a data.frame, this works fluidly.

filter(gapminder, lifeExp > 80) %>%
    arrange(gdpPercap)

## # A tibble: 21 x 8
##    country       year     pop continent lifeExp gdpPercap total_gdp log_gdp
##    <chr>        <dbl>   <dbl> <chr>       <dbl>     <dbl>     <dbl>   <dbl>
##  1 New Zealand   2007  4.12e6 Oceania      80.2    25185.   1.04e11    11.0
##  2 Israel        2007  6.43e6 Asia         80.7    25523.   1.64e11    11.2
##  3 Italy         2002  5.79e7 Europe       80.2    27968.   1.62e12    12.2
##  4 Italy         2007  5.81e7 Europe       80.5    28570.   1.66e12    12.2
##  5 Japan         2002  1.27e8 Asia         82      28605.   3.63e12    12.6
##  6 Japan         1997  1.26e8 Asia         80.7    28817.   3.63e12    12.6
##  7 Spain         2007  4.04e7 Europe       80.9    28821.   1.17e12    12.1
##  8 Sweden        2002  8.95e6 Europe       80.0    29342.   2.63e11    11.4
##  9 Hong Kong C…  2002  6.76e6 Asia         81.5    30209.   2.04e11    11.3
## 10 France        2007  6.11e7 Europe       80.7    30470.   1.86e12    12.3
## # … with 11 more rows
…
4 %>% sqrt()

## [1] 2

2 ^ 2 %>% sum(1)

## [1] 5

Whatever goes through the pipe becomes the first argument of the function after the pipe. This is convenient, because all dplyr functions produce a data.frame as their output and take a data.frame as the first argument. Since R ignores white-space, we can put each function on a new line, which RStudio will automatically indent, making everything easy to read. Now each line represents a step in a sequential operation. You can read this as “Take the gapminder data.frame, filter to the rows where lifeExp is greater than 80, and arrange by gdpPercap.”

gapminder %>%
    filter(lifeExp > 80) %>%
    arrange(gdpPercap)

## # A tibble: 21 x 8
##    country       year     pop continent lifeExp gdpPercap total_gdp log_gdp
##    <chr>        <dbl>   <dbl> <chr>       <dbl>     <dbl>     <dbl>   <dbl>
##  1 New Zealand   2007  4.12e6 Oceania      80.2    25185.   1.04e11    11.0
##  2 Israel        2007  6.43e6 Asia         80.7    25523.   1.64e11    11.2
##  3 Italy         2002  5.79e7 Europe       80.2    27968.   1.62e12    12.2
##  4 Italy         2007  5.81e7 Europe       80.5    28570.   1.66e12    12.2
##  5 Japan         2002  1.27e8 Asia         82      28605.   3.63e12    12.6
##  6 Japan         1997  1.26e8 Asia         80.7    28817.   3.63e12    12.6
##  7 Spain         2007  4.04e7 Europe       80.9    28821.   1.17e12    12.1
##  8 Sweden        2002  8.95e6 Europe       80.0    29342.   2.63e11    11.4
##  9 Hong Kong C…  2002  6.76e6 Asia         81.5    30209.   2.04e11    11.3
## 10 France        2007  6.11e7 Europe       80.7    30470.   1.86e12    12.3
## # … with 11 more rows
…
There are several different summary statistics that can be generated from our data. The R base package provides many built-in functions such as mean, median, min, max, and range. By default, all R functions operating on vectors that contains missing data will return NA. It’s a way to make sure that users know they have missing data, and make a conscious decision on how to deal with it. When dealing with simple statistics like the mean, the easiest way to ignore NA (the missing data) is to use na.rm=TRUE (rm stands for remove). An alternate option is to use the function is.na(), which evaluates to true if the value passed to it is not a number. This function is more useful as a part of a filter, where you can filter out everything that is not a number. For that purpose you would do something like

gapminder %>%
  filter(!is.na(someColumn)) 

The ! symbol negates it, so we’re asking for everything that is not an NA.

We often want to calculate the number of entries within a group. E.g. we might wonder if our dataset is balanced by country. We can do this with the n() function, or dplyr provides a count function as a convenience:

gapminder %>%
    group_by(country) %>%
    summarize(number_entries = n())

## # A tibble: 142 x 2
##    country     number_entries
##    <chr>                <int>
##  1 Afghanistan             12
##  2 Albania                 12
##  3 Algeria                 12
##  4 Angola                  12
##  5 Argentina               12
##  6 Australia               12
##  7 Austria                 12
##  8 Bahrain                 12
##  9 Bangladesh              12
## 10 Belgium                 12
## # … with 132 more rows

count(gapminder, country)

## # A tibble: 142 x 2
##    country         n
##    <chr>       <int>
##  1 Afghanistan    12
##  2 Albania        12
##  3 Algeria        12
##  4 Angola         12
##  5 Argentina      12
##  6 Australia      12
##  7 Austria        12
##  8 Bahrain        12
##  9 Bangladesh     12
## 10 Belgium        12
## # … with 132 more rows

We can also do multiple groupings. Suppose we want the maximum life expectancy in each continent for each year. We group by continent and year and calculate the maximum with the max function:

gapminder %>%
    group_by(continent, year) %>%
    summarize(longest_life = max(lifeExp))

## # A tibble: 60 x 3
## # Groups:   continent [5]
##    continent  year longest_life
##    <chr>     <dbl>        <dbl>
##  1 Africa     1952         52.7
##  2 Africa     1957         58.1
##  3 Africa     1962         60.2
##  4 Africa     1967         61.6
##  5 Africa     1972         64.3
##  6 Africa     1977         67.1
##  7 Africa     1982         69.9
##  8 Africa     1987         71.9
##  9 Africa     1992         73.6
## 10 Africa     1997         74.8
## # … with 50 more rows
…
max(c(1, 7, 4))

## [1] 7

which.max(c(1, 7, 4))

## [1] 2

Now, back to the question: Where lifeExp is at a maximum, what is the entry in country?

gapminder %>%
    group_by(continent, year) %>%
    summarize(longest_life = max(lifeExp), country = country[which.max(lifeExp)])

## # A tibble: 60 x 4
## # Groups:   continent [5]
##    continent  year longest_life country  
##    <chr>     <dbl>        <dbl> <chr>    
##  1 Africa     1952         52.7 Reunion  
##  2 Africa     1957         58.1 Mauritius
##  3 Africa     1962         60.2 Mauritius
##  4 Africa     1967         61.6 Mauritius
##  5 Africa     1972         64.3 Reunion  
##  6 Africa     1977         67.1 Reunion  
##  7 Africa     1982         69.9 Reunion  
##  8 Africa     1987         71.9 Reunion  
##  9 Africa     1992         73.6 Reunion  
## 10 Africa     1997         74.8 Reunion  
## # … with 50 more rows
…
