Starting With Data
…
Now let’s take a look at how prints and check the class:

t_surveys

## # A tibble: 34,786 x 13
##    record_id month   day  year plot_id species_id sex   hindfoot_length weight genus   species  taxa   plot_type
##        <dbl> <dbl> <dbl> <dbl>   <dbl> <chr>      <chr>           <dbl>  <dbl> <chr>   <chr>    <chr>  <chr>    
##  1         1     7    16  1977       2 NL         M                  32     NA Neotoma albigula Rodent Control  
##  2        72     8    19  1977       2 NL         M                  31     NA Neotoma albigula Rodent Control  
##  3       224     9    13  1977       2 NL         <NA>               NA     NA Neotoma albigula Rodent Control  
##  4       266    10    16  1977       2 NL         <NA>               NA     NA Neotoma albigula Rodent Control  
##  5       349    11    12  1977       2 NL         <NA>               NA     NA Neotoma albigula Rodent Control  
##  6       363    11    12  1977       2 NL         <NA>               NA     NA Neotoma albigula Rodent Control  
##  7       435    12    10  1977       2 NL         <NA>               NA     NA Neotoma albigula Rodent Control  
##  8       506     1     8  1978       2 NL         <NA>               NA     NA Neotoma albigula Rodent Control  
##  9       588     2    18  1978       2 NL         M                  NA    218 Neotoma albigula Rodent Control  
## 10       661     3    11  1978       2 NL         <NA>               NA     NA Neotoma albigula Rodent Control  
## # … with 34,776 more rows
…
t_surveys[,1] # gives a tibble back

## # A tibble: 34,786 x 1
##    record_id
##        <dbl>
##  1         1
##  2        72
##  3       224
##  4       266
##  5       349
##  6       363
##  7       435
##  8       506
##  9       588
## 10       661
## # … with 34,776 more rows
…
