Reshaping Data with tidyr
…
Now take that data frame and gather() it again, so each row is a unique plot_id by year combination.

ANSWER

rich_time %>%
  gather(year, n_genera, -plot_id)

## # A tibble: 624 x 3
## # Groups:   plot_id [24]
##    plot_id year  n_genera
##      <int> <chr>    <int>
##  1       1 1977         2
##  2       2 1977         6
##  3       3 1977         5
##  4       4 1977         4
##  5       5 1977         4
##  6       6 1977         3
##  7       7 1977         3
##  8       8 1977         2
##  9       9 1977         3
## 10      10 1977         1
## # ... with 614 more rows
…
ANSWER

surveys_long <- surveys %>%
  gather(measurement, value, hindfoot_length, weight)

With this new data set, calculate the average of each measurement in each year for each different plot_type. Then spread() them into a data set with a column for hindfoot_length and weight. Hint: You only need to specify the key and value columns for spread().

ANSWER

surveys_long %>%
  group_by(year, measurement, plot_type) %>%
  summarize(mean_value = mean(value, na.rm=TRUE)) %>%
  spread(measurement, mean_value)

## # A tibble: 130 x 4
## # Groups:   year [26]
##     year plot_type                 hindfoot_length weight
##    <int> <fct>                               <dbl>  <dbl>
##  1  1977 Control                              36.1   50.4
##  2  1977 Long-term Krat Exclosure             33.7   34.8
##  3  1977 Rodent Exclosure                     39.1   48.2
##  4  1977 Short-term Krat Exclosure            35.8   41.3
##  5  1977 Spectab exclosure                    37.2   47.1
##  6  1978 Control                              38.1   70.8
##  7  1978 Long-term Krat Exclosure             22.6   35.9
##  8  1978 Rodent Exclosure                     37.8   67.3
##  9  1978 Short-term Krat Exclosure            36.9   63.8
## 10  1978 Spectab exclosure                    42.3   80.1
## # ... with 120 more rows
…
